^C:\USERS\MAGSHIMIM\H.W.-LESSON-10\H.W. LESSON 10\H.W. LESSON 10\CUSTOMER.CPP|C:\USERS\MAGSHIMIM\H.W.-LESSON-10\H.W. LESSON 10\H.W. LESSON 10\ITEM.CPP|C:\USERS\MAGSHIMIM\H.W.-LESSON-10\H.W. LESSON 10\H.W. LESSON 10\MAIN.CPP
C:\USERS\MAGSHIMIM\H.W.-LESSON-10\H.W. LESSON 10\H.W. LESSON 10\DEBUG\VC142.PDB
C:\USERS\MAGSHIMIM\H.W.-LESSON-10\H.W. LESSON 10\H.W. LESSON 10\DEBUG\VC142.IDB
C:\USERS\MAGSHIMIM\H.W.-LESSON-10\H.W. LESSON 10\H.W. LESSON 10\DEBUG\MAIN.OBJ
C:\USERS\MAGSHIMIM\H.W.-LESSON-10\H.W. LESSON 10\H.W. LESSON 10\DEBUG\ITEM.OBJ
C:\USERS\MAGSHIMIM\H.W.-LESSON-10\H.W. LESSON 10\H.W. LESSON 10\DEBUG\CUSTOMER.OBJ
^C:\USERS\MAGSHIMIM\H.W.-LESSON-10\H.W. LESSON 10\H.W. LESSON 10\CUSTOMER.CPP
C:\USERS\MAGSHIMIM\H.W.-LESSON-10\H.W. LESSON 10\H.W. LESSON 10\DEBUG\VC142.PDB
C:\USERS\MAGSHIMIM\H.W.-LESSON-10\H.W. LESSON 10\H.W. LESSON 10\DEBUG\VC142.IDB
C:\USERS\MAGSHIMIM\H.W.-LESSON-10\H.W. LESSON 10\H.W. LESSON 10\DEBUG\CUSTOMER.OBJ
^C:\USERS\MAGSHIMIM\H.W.-LESSON-10\H.W. LESSON 10\H.W. LESSON 10\ITEM.CPP
C:\USERS\MAGSHIMIM\H.W.-LESSON-10\H.W. LESSON 10\H.W. LESSON 10\DEBUG\VC142.PDB
C:\USERS\MAGSHIMIM\H.W.-LESSON-10\H.W. LESSON 10\H.W. LESSON 10\DEBUG\VC142.IDB
C:\USERS\MAGSHIMIM\H.W.-LESSON-10\H.W. LESSON 10\H.W. LESSON 10\DEBUG\ITEM.OBJ
^C:\USERS\MAGSHIMIM\H.W.-LESSON-10\H.W. LESSON 10\H.W. LESSON 10\MAIN.CPP
C:\USERS\MAGSHIMIM\H.W.-LESSON-10\H.W. LESSON 10\H.W. LESSON 10\DEBUG\VC142.PDB
C:\USERS\MAGSHIMIM\H.W.-LESSON-10\H.W. LESSON 10\H.W. LESSON 10\DEBUG\VC142.IDB
C:\USERS\MAGSHIMIM\H.W.-LESSON-10\H.W. LESSON 10\H.W. LESSON 10\DEBUG\MAIN.OBJ
